<svg width="151" height="150" viewBox="0 0 151 150" fill="none" xmlns="http://www.w3.org/2000/svg">
<path d="M149.7 73.1998C120.7 13.2998 29.1999 13.5998 0.399902 73.1998C-0.100098 74.2998 -0.100098 75.5998 0.399902 76.7998C29.3999 136.7 120.9 136.4 149.7 76.7998C150.2 75.5998 150.2 74.3998 149.7 73.1998ZM9.2999 74.9998C14.1999 65.8998 23.7999 53.9998 38.2999 45.9998C24.9999 62.0998 24.9999 87.8998 38.2999 104C23.7999 95.9998 14.1999 83.9998 9.2999 74.9998ZM74.9999 113C54.0999 113 36.9999 95.9998 36.9999 74.9998C39.0999 24.5998 110.9 24.5998 113 74.9998C113 95.8998 95.9999 113 74.9999 113ZM111.7 104C125 87.8998 125 62.0998 111.7 45.9998C126.2 53.9998 135.8 65.9998 140.7 74.9998C135.8 84.0998 126.2 95.9998 111.7 104Z" fill="#009FE3"/>
<path d="M75.0001 18.1998C77.4001 18.1998 79.4001 16.1998 79.4001 13.7998V4.39981C79.2001 -1.4002 70.8001 -1.4002 70.6001 4.39981V13.7998C70.6001 16.1998 72.6001 18.1998 75.0001 18.1998Z" fill="#009FE3"/>
<path d="M75.0001 131.8C72.6001 131.8 70.6001 133.8 70.6001 136.2V145.6C70.8001 151.4 79.2001 151.4 79.4001 145.6V136.2C79.4001 133.8 77.5001 131.8 75.0001 131.8Z" fill="#009FE3"/>
<path d="M20.1 26.2998C21.8 27.9998 24.6 27.9998 26.3 26.2998C28 24.5998 28 21.7998 26.3 20.0998L19.6 13.3998C17.9 11.6998 15.1 11.6998 13.4 13.3998C11.7 15.0998 11.7 17.8998 13.4 19.5998L20.1 26.2998Z" fill="#009FE3"/>
<path d="M20.1 123.7L13.4 130.4C11.7 132.1 11.7 134.9 13.4 136.6C15.1 138.3 17.9 138.3 19.6 136.6L26.3 129.9C28 128.2 28 125.4 26.3 123.7C24.6 122 21.8 122 20.1 123.7Z" fill="#009FE3"/>
<path d="M129.9 26.2998L136.6 19.5998C138.3 17.8998 138.3 15.0998 136.6 13.3998C134.9 11.6998 132.1 11.6998 130.4 13.3998L123.7 20.0998C122 21.7998 122 24.5998 123.7 26.2998C125.4 27.9998 128.2 27.9998 129.9 26.2998Z" fill="#009FE3"/>
<path d="M129.9 123.7C128.2 122 125.4 122 123.7 123.7C122 125.4 122 128.2 123.7 129.9L130.4 136.6C132.1 138.3 134.9 138.3 136.6 136.6C138.3 134.9 138.3 132.1 136.6 130.4L129.9 123.7Z" fill="#009FE3"/>
<path d="M75 56.4998C64.8 56.4998 56.5 64.7998 56.5 74.9998C57.5 99.5998 92.5 99.5998 93.5 74.9998C93.5 64.7998 85.2 56.4998 75 56.4998ZM75 84.6998C69.6 84.6998 65.3 80.2998 65.3 74.9998C65.8 62.0998 84.2 62.0998 84.8 74.9998C84.8 80.3998 80.4 84.6998 75 84.6998Z" fill="#009FE3"/>
</svg>
